[{
    "id":1,
    "proizvodjac":"Church & Dwight Company, Inc.",
    "kategorija":"Outdoors",
    "img":"http://dummyimage.com/179x192.jpg/ff4444/ffffff",
    "naziv":"Syrup - Monin, Swiss Choclate",
    "cena":257.55,
    "opis":"fringilla rhoncus mauris enim leo rhoncus sed vestibulum sit amet cursus id turpis integer aliquet massa id lobortis convallis tortor risus dapibus augue vel",
    "kolicina":47
 },
{"id":2,"proizvodjac":"Cogent Communications Holdings, Inc.","kategorija":"Jewelery","img":"http://dummyimage.com/195x111.jpg/5fa2dd/ffffff","naziv":"Cookie Dough - Oatmeal Rasin","cena":191.4,"opis":"metus sapien ut nunc vestibulum ante ipsum primis in faucibus orci luctus et ultrices posuere cubilia curae mauris viverra diam","kolicina":29},
{"id":3,"proizvodjac":"Natera, Inc.","kategorija":"Electronics","img":"http://dummyimage.com/244x228.jpg/dddddd/000000","naziv":"Tea - Mint","cena":179.09,"opis":"curabitur convallis duis consequat dui nec nisi volutpat eleifend donec ut dolor morbi vel lectus in quam fringilla rhoncus mauris enim leo rhoncus sed vestibulum sit amet cursus id turpis","kolicina":50},
{"id":4,"proizvodjac":"Old Second Bancorp, Inc.","kategorija":"Tools","img":"http://dummyimage.com/183x227.jpg/dddddd/000000","naziv":"Island Oasis - Lemonade","cena":216.71,"opis":"eu nibh quisque id justo sit amet sapien dignissim vestibulum vestibulum ante ipsum primis in faucibus orci luctus et ultrices posuere cubilia curae nulla dapibus dolor vel est donec odio","kolicina":1},
{"id":5,"proizvodjac":"Continental Building Products, Inc.","kategorija":"Toys","img":"http://dummyimage.com/233x209.jpg/cc0000/ffffff","naziv":"Carbonated Water - Lemon Lime","cena":190.89,"opis":"mauris morbi non lectus aliquam sit amet diam in magna bibendum imperdiet nullam orci pede venenatis non sodales sed tincidunt eu felis fusce posuere felis","kolicina":20},
{"id":6,"proizvodjac":"Brookfield Property Partners L.P.","kategorija":"Electronics","img":"http://dummyimage.com/161x113.jpg/cc0000/ffffff","naziv":"Lotus Leaves","cena":128.72,"opis":"morbi quis tortor id nulla ultrices aliquet maecenas leo odio condimentum id luctus nec molestie sed justo pellentesque viverra pede ac diam cras pellentesque volutpat dui maecenas tristique est et tempus semper est quam pharetra magna ac consequat","kolicina":13},
{"id":7,"proizvodjac":"NextEra Energy, Inc.","kategorija":"Baby","img":"http://dummyimage.com/123x177.jpg/cc0000/ffffff","naziv":"Cheese - Bocconcini","cena":107.27,"opis":"nisl ut volutpat sapien arcu sed augue aliquam erat volutpat in congue etiam justo etiam pretium iaculis justo in hac habitasse platea dictumst etiam faucibus cursus urna ut tellus nulla ut erat id mauris vulputate elementum nullam varius","kolicina":27},
{"id":8,"proizvodjac":"Adient plc","kategorija":"Clothing","img":"http://dummyimage.com/203x213.jpg/dddddd/000000","naziv":"Veal - Eye Of Round","cena":264.37,"opis":"turpis donec posuere metus vitae ipsum aliquam non mauris morbi non lectus aliquam sit amet diam in magna bibendum imperdiet nullam","kolicina":32},
{"id":9,"proizvodjac":"Manning & Napier, Inc.","kategorija":"Movies","img":"http://dummyimage.com/103x116.jpg/5fa2dd/ffffff","naziv":"Chicken - Base, Ultimate","cena":181.99,"opis":"porttitor pede justo eu massa donec dapibus duis at velit eu est congue elementum in hac habitasse platea dictumst morbi vestibulum velit id pretium iaculis diam erat fermentum justo nec condimentum neque sapien placerat ante nulla","kolicina":8},
{"id":10,"proizvodjac":"Steelcase Inc.","kategorija":"Sports","img":"http://dummyimage.com/164x196.jpg/dddddd/000000","naziv":"Higashimaru Usukuchi Soy","cena":214.94,"opis":"sed nisl nunc rhoncus dui vel sem sed sagittis nam congue risus semper porta volutpat quam pede lobortis ligula sit amet eleifend pede libero quis orci nullam molestie nibh in lectus pellentesque","kolicina":15},
{"id":11,"proizvodjac":"Hovnanian Enterprises Inc","kategorija":"Movies","img":"http://dummyimage.com/149x186.jpg/ff4444/ffffff","naziv":"Crab - Claws, 26 - 30","cena":168.51,"opis":"quis turpis eget elit sodales scelerisque mauris sit amet eros suspendisse accumsan tortor quis turpis sed ante vivamus tortor duis mattis egestas metus aenean fermentum donec ut mauris","kolicina":32},
{"id":12,"proizvodjac":"AAR Corp.","kategorija":"Clothing","img":"http://dummyimage.com/235x103.jpg/ff4444/ffffff","naziv":"Carbonated Water - Blackberry","cena":228.41,"opis":"est lacinia nisi venenatis tristique fusce congue diam id ornare imperdiet sapien urna pretium nisl ut volutpat sapien arcu sed augue aliquam erat volutpat in congue etiam justo etiam pretium","kolicina":0},
{"id":13,"proizvodjac":"Quinpario Acquisition Corp. 2","kategorija":"Beauty","img":"http://dummyimage.com/203x133.jpg/ff4444/ffffff","naziv":"Rum - Light, Captain Morgan","cena":221.94,"opis":"in est risus auctor sed tristique in tempus sit amet sem fusce consequat nulla nisl nunc nisl duis bibendum felis sed interdum","kolicina":44},
{"id":14,"proizvodjac":"iShares FTSE EPRA/NAREIT Europe Index Fund","kategorija":"Toys","img":"http://dummyimage.com/117x165.jpg/ff4444/ffffff","naziv":"Pasta - Agnolotti - Butternut","cena":199.61,"opis":"sagittis dui vel nisl duis ac nibh fusce lacus purus aliquet at feugiat non pretium quis lectus suspendisse potenti in eleifend quam a odio in hac habitasse platea dictumst maecenas ut massa quis augue luctus tincidunt nulla mollis molestie lorem","kolicina":0},
{"id":15,"proizvodjac":"Spirit Realty Capital, Inc.","kategorija":"Books","img":"http://dummyimage.com/152x161.jpg/5fa2dd/ffffff","naziv":"Oil - Grapeseed Oil","cena":275.3,"opis":"massa id lobortis convallis tortor risus dapibus augue vel accumsan tellus nisi eu orci mauris lacinia sapien quis libero nullam sit amet turpis elementum ligula","kolicina":30},
{"id":16,"proizvodjac":"UBS AG","kategorija":"Toys","img":"http://dummyimage.com/177x148.jpg/ff4444/ffffff","naziv":"Wine - Zonnebloem Pinotage","cena":203.29,"opis":"duis consequat dui nec nisi volutpat eleifend donec ut dolor morbi vel lectus in quam fringilla rhoncus mauris enim leo","kolicina":37},
{"id":17,"proizvodjac":"American Eagle Outfitters, Inc.","kategorija":"Jewelery","img":"http://dummyimage.com/204x153.jpg/5fa2dd/ffffff","naziv":"Salmon - Smoked, Sliced","cena":240.05,"opis":"sit amet eros suspendisse accumsan tortor quis turpis sed ante vivamus tortor duis mattis egestas metus aenean fermentum donec ut mauris eget","kolicina":5},
{"id":18,"proizvodjac":"Panera Bread Company","kategorija":"Games","img":"http://dummyimage.com/241x198.jpg/cc0000/ffffff","naziv":"Soup - Campbells, Lentil","cena":160.32,"opis":"nisl nunc nisl duis bibendum felis sed interdum venenatis turpis enim blandit mi in porttitor pede justo eu massa donec dapibus duis at velit eu est congue","kolicina":0},
{"id":19,"proizvodjac":"Colonial Municipal Income Trust","kategorija":"Kids","img":"http://dummyimage.com/192x248.jpg/cc0000/ffffff","naziv":"Lettuce - Red Leaf","cena":249.16,"opis":"integer aliquet massa id lobortis convallis tortor risus dapibus augue vel accumsan tellus nisi eu orci mauris lacinia sapien quis libero nullam sit amet turpis elementum ligula vehicula consequat morbi a ipsum integer a nibh in quis justo","kolicina":43},
{"id":20,"proizvodjac":"Cooper-Standard Holdings Inc.","kategorija":"Movies","img":"http://dummyimage.com/191x246.jpg/5fa2dd/ffffff","naziv":"Mackerel Whole Fresh","cena":152.77,"opis":"integer ac neque duis bibendum morbi non quam nec dui luctus rutrum nulla tellus in sagittis dui vel nisl duis ac nibh fusce lacus purus aliquet at feugiat","kolicina":39},
{"id":21,"proizvodjac":"LaSalle Hotel Properties","kategorija":"Toys","img":"http://dummyimage.com/229x244.jpg/cc0000/ffffff","naziv":"Sage - Fresh","cena":212.65,"opis":"cum sociis natoque penatibus et magnis dis parturient montes nascetur ridiculus mus vivamus vestibulum sagittis sapien cum sociis natoque penatibus et magnis dis parturient montes nascetur ridiculus mus etiam vel augue vestibulum rutrum rutrum neque aenean auctor gravida sem praesent","kolicina":11},
{"id":22,"proizvodjac":"Karyopharm Therapeutics Inc.","kategorija":"Books","img":"http://dummyimage.com/168x215.jpg/ff4444/ffffff","naziv":"Eggplant - Asian","cena":180.17,"opis":"ipsum primis in faucibus orci luctus et ultrices posuere cubilia curae mauris viverra diam vitae quam suspendisse potenti nullam porttitor lacus at turpis donec posuere","kolicina":7},
{"id":23,"proizvodjac":"NeoPhotonics Corporation","kategorija":"Health","img":"http://dummyimage.com/114x213.jpg/cc0000/ffffff","naziv":"Bread - Dark Rye","cena":244.89,"opis":"vel est donec odio justo sollicitudin ut suscipit a feugiat et eros vestibulum ac est lacinia nisi venenatis tristique fusce congue diam id ornare imperdiet sapien urna pretium nisl ut volutpat sapien arcu sed augue aliquam erat","kolicina":36},
{"id":24,"proizvodjac":"Jensyn Acquistion Corp.","kategorija":"Kids","img":"http://dummyimage.com/133x238.jpg/dddddd/000000","naziv":"Wine - Magnotta, Merlot Sr Vqa","cena":162.22,"opis":"cum sociis natoque penatibus et magnis dis parturient montes nascetur ridiculus mus etiam vel augue vestibulum rutrum rutrum neque aenean auctor gravida sem praesent id massa id nisl venenatis lacinia aenean sit amet justo morbi ut","kolicina":9},
{"id":25,"proizvodjac":"Cushing Renaissance Fund (The)","kategorija":"Clothing","img":"http://dummyimage.com/105x122.jpg/ff4444/ffffff","naziv":"Bowl 12 Oz - Showcase 92012","cena":203.0,"opis":"luctus et ultrices posuere cubilia curae donec pharetra magna vestibulum aliquet ultrices erat tortor sollicitudin mi sit amet lobortis sapien sapien non mi integer ac neque duis bibendum morbi non quam nec dui","kolicina":15},
{"id":26,"proizvodjac":"Powell Industries, Inc.","kategorija":"Games","img":"http://dummyimage.com/220x230.jpg/cc0000/ffffff","naziv":"Beef - Montreal Smoked Brisket","cena":288.42,"opis":"at nunc commodo placerat praesent blandit nam nulla integer pede justo lacinia eget tincidunt eget tempus vel pede morbi porttitor lorem id ligula suspendisse","kolicina":10},
{"id":27,"proizvodjac":"Comerica Incorporated","kategorija":"Electronics","img":"http://dummyimage.com/221x202.jpg/5fa2dd/ffffff","naziv":"Salt - Kosher","cena":208.46,"opis":"aenean auctor gravida sem praesent id massa id nisl venenatis lacinia aenean sit amet justo morbi ut odio cras mi pede malesuada in imperdiet et commodo vulputate justo in blandit ultrices enim lorem ipsum dolor sit amet consectetuer adipiscing elit","kolicina":5},
{"id":28,"proizvodjac":"PS Business Parks, Inc.","kategorija":"Garden","img":"http://dummyimage.com/238x123.jpg/ff4444/ffffff","naziv":"Wine - White, Pelee Island","cena":232.03,"opis":"dictumst aliquam augue quam sollicitudin vitae consectetuer eget rutrum at lorem integer tincidunt ante vel ipsum praesent blandit lacinia erat vestibulum sed magna at nunc commodo placerat","kolicina":8},
{"id":29,"proizvodjac":"MB Financial Inc.","kategorija":"Outdoors","img":"http://dummyimage.com/228x174.jpg/cc0000/ffffff","naziv":"Almonds Ground Blanched","cena":189.28,"opis":"sem mauris laoreet ut rhoncus aliquet pulvinar sed nisl nunc rhoncus dui vel sem sed sagittis nam congue risus semper porta volutpat quam pede lobortis ligula sit amet eleifend pede libero quis orci nullam","kolicina":4},
{"id":30,"proizvodjac":"Sunesis Pharmaceuticals, Inc.","kategorija":"Toys","img":"http://dummyimage.com/177x248.jpg/dddddd/000000","naziv":"Huck White Towels","cena":238.79,"opis":"vulputate vitae nisl aenean lectus pellentesque eget nunc donec quis orci eget orci vehicula condimentum curabitur in libero ut massa volutpat convallis morbi odio","kolicina":0},
{"id":31,"proizvodjac":"Immuron Limited","kategorija":"Jewelery","img":"http://dummyimage.com/138x231.jpg/dddddd/000000","naziv":"Coffee - French Vanilla Frothy","cena":213.78,"opis":"at lorem integer tincidunt ante vel ipsum praesent blandit lacinia erat vestibulum sed magna at nunc commodo placerat praesent blandit nam nulla integer pede","kolicina":12},
{"id":32,"proizvodjac":"Saratoga Investment Corp","kategorija":"Music","img":"http://dummyimage.com/206x161.jpg/ff4444/ffffff","naziv":"Lamb - Whole, Fresh","cena":237.37,"opis":"id justo sit amet sapien dignissim vestibulum vestibulum ante ipsum primis in faucibus orci luctus et ultrices posuere cubilia curae nulla dapibus dolor vel est donec odio justo sollicitudin ut suscipit a feugiat","kolicina":11},
{"id":33,"proizvodjac":"Rio Tinto Plc","kategorija":"Electronics","img":"http://dummyimage.com/166x126.jpg/dddddd/000000","naziv":"Bacardi Breezer - Tropical","cena":214.73,"opis":"phasellus in felis donec semper sapien a libero nam dui proin leo odio porttitor id consequat in consequat ut nulla sed accumsan felis ut at dolor quis odio consequat varius integer ac leo pellentesque ultrices","kolicina":48},
{"id":34,"proizvodjac":"UMH Properties, Inc.","kategorija":"Electronics","img":"http://dummyimage.com/170x218.jpg/dddddd/000000","naziv":"Wine - Valpolicella Masi","cena":220.76,"opis":"integer a nibh in quis justo maecenas rhoncus aliquam lacus morbi quis tortor id nulla ultrices aliquet maecenas leo odio condimentum id luctus nec molestie sed justo pellentesque viverra pede ac diam cras pellentesque volutpat dui maecenas tristique est et","kolicina":0},
{"id":35,"proizvodjac":"PowerShares International Dividend Achievers Portfolio","kategorija":"Jewelery","img":"http://dummyimage.com/108x138.jpg/5fa2dd/ffffff","naziv":"Coffee - Decafenated","cena":180.49,"opis":"leo pellentesque ultrices mattis odio donec vitae nisi nam ultrices libero non mattis pulvinar nulla pede ullamcorper augue a suscipit nulla elit ac","kolicina":11},
{"id":36,"proizvodjac":"First Trust Taiwan AlphaDEX Fund","kategorija":"Baby","img":"http://dummyimage.com/241x112.jpg/dddddd/000000","naziv":"Danishes - Mini Raspberry","cena":187.49,"opis":"lacus at velit vivamus vel nulla eget eros elementum pellentesque quisque porta volutpat erat quisque erat eros viverra eget congue eget semper rutrum nulla nunc purus phasellus in felis","kolicina":10},
{"id":37,"proizvodjac":"Sensus Healthcare, Inc.","kategorija":"Tools","img":"http://dummyimage.com/188x171.jpg/cc0000/ffffff","naziv":"Longos - Penne With Pesto","cena":233.94,"opis":"nisi volutpat eleifend donec ut dolor morbi vel lectus in quam fringilla rhoncus mauris enim leo rhoncus sed vestibulum sit amet cursus id turpis","kolicina":32},
{"id":38,"proizvodjac":"Bioanalytical Systems, Inc.","kategorija":"Outdoors","img":"http://dummyimage.com/208x125.jpg/cc0000/ffffff","naziv":"Ecolab - Hand Soap Form Antibac","cena":136.51,"opis":"lacinia sapien quis libero nullam sit amet turpis elementum ligula vehicula consequat morbi a ipsum integer a nibh in quis justo maecenas rhoncus aliquam lacus morbi quis tortor id nulla","kolicina":30},
{"id":39,"proizvodjac":"Assembly Biosciences, Inc.","kategorija":"Automotive","img":"http://dummyimage.com/159x208.jpg/5fa2dd/ffffff","naziv":"Cookie Choc","cena":196.14,"opis":"cras pellentesque volutpat dui maecenas tristique est et tempus semper est quam pharetra magna ac consequat metus sapien ut nunc vestibulum ante ipsum primis in faucibus","kolicina":47},
{"id":40,"proizvodjac":"Sprague Resources LP","kategorija":"Baby","img":"http://dummyimage.com/242x171.jpg/dddddd/000000","naziv":"Gatorade - Orange","cena":187.97,"opis":"nisl ut volutpat sapien arcu sed augue aliquam erat volutpat in congue etiam justo etiam pretium iaculis justo in hac habitasse platea dictumst etiam faucibus cursus urna","kolicina":4},
{"id":41,"proizvodjac":"CAE Inc","kategorija":"Movies","img":"http://dummyimage.com/192x173.jpg/cc0000/ffffff","naziv":"Mangostein","cena":205.46,"opis":"felis donec semper sapien a libero nam dui proin leo odio porttitor id consequat in consequat ut nulla sed accumsan felis ut at dolor quis odio consequat varius integer ac","kolicina":14},
{"id":42,"proizvodjac":"Pioneer Power Solutions, Inc.","kategorija":"Music","img":"http://dummyimage.com/212x156.jpg/5fa2dd/ffffff","naziv":"Potatoes - Instant, Mashed","cena":223.89,"opis":"a suscipit nulla elit ac nulla sed vel enim sit amet nunc viverra dapibus nulla suscipit ligula in lacus curabitur at ipsum ac tellus semper interdum mauris ullamcorper purus sit amet nulla quisque arcu libero rutrum ac","kolicina":43},
{"id":43,"proizvodjac":"Adams Natural Resources Fund, Inc.","kategorija":"Grocery","img":"http://dummyimage.com/108x246.jpg/cc0000/ffffff","naziv":"Lemonade - Black Cherry, 591 Ml","cena":262.76,"opis":"etiam pretium iaculis justo in hac habitasse platea dictumst etiam faucibus cursus urna ut tellus nulla ut erat id mauris vulputate elementum nullam","kolicina":2},
{"id":44,"proizvodjac":"GNC Holdings, Inc.","kategorija":"Automotive","img":"http://dummyimage.com/186x186.jpg/ff4444/ffffff","naziv":"Bread Base - Italian","cena":226.34,"opis":"maecenas rhoncus aliquam lacus morbi quis tortor id nulla ultrices aliquet maecenas leo odio condimentum id luctus nec molestie sed justo pellentesque viverra pede","kolicina":31},
{"id":45,"proizvodjac":"Salesforce.com Inc","kategorija":"Garden","img":"http://dummyimage.com/213x180.jpg/ff4444/ffffff","naziv":"Carbonated Water - Peach","cena":134.04,"opis":"sed interdum venenatis turpis enim blandit mi in porttitor pede justo eu massa donec dapibus duis at velit eu est congue elementum in hac habitasse platea dictumst morbi vestibulum velit id pretium iaculis diam erat fermentum justo nec condimentum","kolicina":31},
{"id":46,"proizvodjac":"TCF Financial Corporation","kategorija":"Shoes","img":"http://dummyimage.com/245x110.jpg/dddddd/000000","naziv":"Bread - Roll, Italian","cena":122.86,"opis":"id massa id nisl venenatis lacinia aenean sit amet justo morbi ut odio cras mi pede malesuada in imperdiet et commodo vulputate justo in blandit ultrices enim lorem ipsum dolor sit amet consectetuer adipiscing elit proin interdum","kolicina":6},
{"id":47,"proizvodjac":"Grupo Aeroportuario del Centro Norte S.A.B. de C.V.","kategorija":"Tools","img":"http://dummyimage.com/134x241.jpg/cc0000/ffffff","naziv":"Rhubarb","cena":216.92,"opis":"ligula in lacus curabitur at ipsum ac tellus semper interdum mauris ullamcorper purus sit amet nulla quisque arcu libero rutrum ac lobortis vel","kolicina":26},
{"id":48,"proizvodjac":"Main Street Capital Corporation","kategorija":"Shoes","img":"http://dummyimage.com/242x178.jpg/ff4444/ffffff","naziv":"Bread - Raisin Walnut Oval","cena":247.03,"opis":"nunc donec quis orci eget orci vehicula condimentum curabitur in libero ut massa volutpat convallis morbi odio odio elementum eu interdum eu tincidunt","kolicina":37},
{"id":49,"proizvodjac":"DTE Energy Company","kategorija":"Computers","img":"http://dummyimage.com/122x126.jpg/dddddd/000000","naziv":"Coffee Decaf Colombian","cena":267.77,"opis":"nascetur ridiculus mus vivamus vestibulum sagittis sapien cum sociis natoque penatibus et magnis dis parturient montes nascetur ridiculus mus etiam vel augue vestibulum rutrum rutrum neque aenean auctor gravida sem praesent id massa id","kolicina":26},
{"id":50,"proizvodjac":"Markel Corporation","kategorija":"Toys","img":"http://dummyimage.com/107x247.jpg/dddddd/000000","naziv":"Lobster - Cooked","cena":219.33,"opis":"cras mi pede malesuada in imperdiet et commodo vulputate justo in blandit ultrices enim lorem ipsum dolor sit amet consectetuer adipiscing elit proin interdum mauris non ligula pellentesque","kolicina":12},
{"id":51,"proizvodjac":"Radware Ltd.","kategorija":"Music","img":"http://dummyimage.com/204x188.jpg/ff4444/ffffff","naziv":"Veal - Chops, Split, Frenched","cena":219.45,"opis":"vulputate luctus cum sociis natoque penatibus et magnis dis parturient montes nascetur ridiculus mus vivamus vestibulum sagittis sapien cum sociis natoque penatibus et magnis dis parturient","kolicina":24},
{"id":52,"proizvodjac":"J P Morgan Chase & Co","kategorija":"Toys","img":"http://dummyimage.com/232x193.jpg/ff4444/ffffff","naziv":"Island Oasis - Wildberry","cena":181.33,"opis":"nulla tempus vivamus in felis eu sapien cursus vestibulum proin eu mi nulla ac enim in tempor turpis nec euismod scelerisque quam turpis adipiscing lorem vitae mattis nibh ligula nec sem duis aliquam convallis nunc proin at turpis a pede","kolicina":47},
{"id":53,"proizvodjac":"Quintiles IMS Holdings, Inc.","kategorija":"Home","img":"http://dummyimage.com/203x132.jpg/dddddd/000000","naziv":"Rum - Coconut, Malibu","cena":183.08,"opis":"praesent blandit nam nulla integer pede justo lacinia eget tincidunt eget tempus vel pede morbi porttitor lorem id ligula suspendisse ornare consequat lectus in est risus auctor sed tristique in tempus sit amet sem fusce consequat nulla","kolicina":34},
{"id":54,"proizvodjac":"BBVA Banco Frances S.A.","kategorija":"Baby","img":"http://dummyimage.com/226x178.jpg/cc0000/ffffff","naziv":"Onion - Dried","cena":200.36,"opis":"pellentesque ultrices mattis odio donec vitae nisi nam ultrices libero non mattis pulvinar nulla pede ullamcorper augue a suscipit nulla elit ac nulla sed vel enim sit amet nunc viverra dapibus","kolicina":48},
{"id":55,"proizvodjac":"Calix, Inc","kategorija":"Shoes","img":"http://dummyimage.com/168x117.jpg/ff4444/ffffff","naziv":"Cheese - Boursin, Garlic / Herbs","cena":225.9,"opis":"libero ut massa volutpat convallis morbi odio odio elementum eu interdum eu tincidunt in leo maecenas pulvinar lobortis est phasellus sit amet erat nulla tempus vivamus in felis eu sapien cursus vestibulum proin eu mi nulla ac enim in tempor","kolicina":22},
{"id":56,"proizvodjac":"Natera, Inc.","kategorija":"Toys","img":"http://dummyimage.com/133x184.jpg/dddddd/000000","naziv":"Salt - Sea","cena":188.46,"opis":"justo lacinia eget tincidunt eget tempus vel pede morbi porttitor lorem id ligula suspendisse ornare consequat lectus in est risus auctor","kolicina":36},
{"id":57,"proizvodjac":"The Meet Group, Inc.","kategorija":"Toys","img":"http://dummyimage.com/175x179.jpg/ff4444/ffffff","naziv":"Oven Mitts - 15 Inch","cena":180.43,"opis":"dui luctus rutrum nulla tellus in sagittis dui vel nisl duis ac nibh fusce lacus purus aliquet at feugiat non pretium quis lectus suspendisse potenti in eleifend quam","kolicina":1},
{"id":58,"proizvodjac":"PowerShares DWA Healthcare Momentum Portfolio","kategorija":"Grocery","img":"http://dummyimage.com/201x248.jpg/cc0000/ffffff","naziv":"Wine - Saint - Bris 2002, Sauv","cena":233.63,"opis":"magnis dis parturient montes nascetur ridiculus mus vivamus vestibulum sagittis sapien cum sociis natoque penatibus et magnis dis parturient montes nascetur ridiculus mus etiam vel augue vestibulum rutrum rutrum neque aenean auctor gravida sem praesent id massa id","kolicina":11},
{"id":59,"proizvodjac":"The RMR Group Inc.","kategorija":"Games","img":"http://dummyimage.com/231x119.jpg/cc0000/ffffff","naziv":"Trueblue - Blueberry 12x473ml","cena":190.81,"opis":"id consequat in consequat ut nulla sed accumsan felis ut at dolor quis odio consequat varius integer ac leo pellentesque ultrices mattis odio donec vitae nisi nam ultrices libero non mattis pulvinar nulla pede","kolicina":5},
{"id":60,"proizvodjac":"National Research Corporation","kategorija":"Sports","img":"http://dummyimage.com/131x204.jpg/cc0000/ffffff","naziv":"Wine - Blue Nun Qualitatswein","cena":258.79,"opis":"amet eros suspendisse accumsan tortor quis turpis sed ante vivamus tortor duis mattis egestas metus aenean fermentum donec ut mauris eget massa tempor convallis nulla neque libero convallis eget eleifend luctus ultricies","kolicina":0},
{"id":61,"proizvodjac":"Deere & Company","kategorija":"Automotive","img":"http://dummyimage.com/130x218.jpg/dddddd/000000","naziv":"Bread - Kimel Stick Poly","cena":216.8,"opis":"magna vulputate luctus cum sociis natoque penatibus et magnis dis parturient montes nascetur ridiculus mus vivamus vestibulum sagittis sapien cum sociis natoque penatibus","kolicina":21},
{"id":62,"proizvodjac":"Dynegy Inc.","kategorija":"Home","img":"http://dummyimage.com/226x235.jpg/ff4444/ffffff","naziv":"Wine - Lou Black Shiraz","cena":254.85,"opis":"massa donec dapibus duis at velit eu est congue elementum in hac habitasse platea dictumst morbi vestibulum velit id pretium iaculis diam erat fermentum justo nec condimentum neque","kolicina":12},
{"id":63,"proizvodjac":"Molson Coors Brewing  Company","kategorija":"Home","img":"http://dummyimage.com/104x190.jpg/cc0000/ffffff","naziv":"Bread - Petit Baguette","cena":128.12,"opis":"pretium nisl ut volutpat sapien arcu sed augue aliquam erat volutpat in congue etiam justo etiam pretium iaculis justo in hac habitasse platea dictumst etiam faucibus cursus","kolicina":16},
{"id":64,"proizvodjac":"Bank of America Corporation","kategorija":"Movies","img":"http://dummyimage.com/173x159.jpg/5fa2dd/ffffff","naziv":"Parsnip","cena":259.86,"opis":"libero nullam sit amet turpis elementum ligula vehicula consequat morbi a ipsum integer a nibh in quis justo maecenas rhoncus aliquam lacus morbi quis tortor id nulla ultrices aliquet maecenas leo odio condimentum id luctus nec molestie","kolicina":8},
{"id":65,"proizvodjac":"Nustar GP Holdings, LLC","kategorija":"Beauty","img":"http://dummyimage.com/161x197.jpg/ff4444/ffffff","naziv":"Pepperoni Slices","cena":232.35,"opis":"cum sociis natoque penatibus et magnis dis parturient montes nascetur ridiculus mus vivamus vestibulum sagittis sapien cum sociis natoque penatibus et magnis dis parturient montes nascetur ridiculus mus etiam vel augue vestibulum rutrum rutrum neque","kolicina":29},
{"id":66,"proizvodjac":"Acceleron Pharma Inc.","kategorija":"Music","img":"http://dummyimage.com/201x208.jpg/5fa2dd/ffffff","naziv":"Juice - Orange, 341 Ml","cena":212.5,"opis":"odio porttitor id consequat in consequat ut nulla sed accumsan felis ut at dolor quis odio consequat varius integer ac leo pellentesque ultrices mattis odio donec vitae nisi nam ultrices libero non mattis pulvinar nulla pede ullamcorper augue a","kolicina":12},
{"id":67,"proizvodjac":"Nomad Foods Limited","kategorija":"Industrial","img":"http://dummyimage.com/197x189.jpg/5fa2dd/ffffff","naziv":"Cheese - Roquefort Pappillon","cena":163.21,"opis":"iaculis justo in hac habitasse platea dictumst etiam faucibus cursus urna ut tellus nulla ut erat id mauris vulputate elementum nullam varius nulla facilisi cras non velit nec nisi vulputate nonummy maecenas tincidunt lacus at velit vivamus vel nulla eget","kolicina":3},
{"id":68,"proizvodjac":"NV5 Global, Inc.","kategorija":"Jewelery","img":"http://dummyimage.com/164x105.jpg/cc0000/ffffff","naziv":"Sauce - Plum","cena":220.04,"opis":"in congue etiam justo etiam pretium iaculis justo in hac habitasse platea dictumst etiam faucibus cursus urna ut tellus nulla ut erat id mauris vulputate elementum nullam varius nulla facilisi cras non velit nec","kolicina":12},
{"id":69,"proizvodjac":"Nuveen Intermediate Duration Municipal Term Fund","kategorija":"Industrial","img":"http://dummyimage.com/151x231.jpg/5fa2dd/ffffff","naziv":"Dill - Primerba, Paste","cena":223.28,"opis":"pede morbi porttitor lorem id ligula suspendisse ornare consequat lectus in est risus auctor sed tristique in tempus sit amet sem fusce consequat nulla nisl nunc nisl duis bibendum felis sed interdum","kolicina":19},
{"id":70,"proizvodjac":"Adaptimmune Therapeutics plc","kategorija":"Grocery","img":"http://dummyimage.com/229x202.jpg/cc0000/ffffff","naziv":"Wine - Kwv Chenin Blanc South","cena":188.12,"opis":"at turpis donec posuere metus vitae ipsum aliquam non mauris morbi non lectus aliquam sit amet diam in magna bibendum imperdiet nullam orci pede venenatis non sodales sed tincidunt eu felis fusce posuere felis sed lacus morbi sem mauris","kolicina":29},
{"id":71,"proizvodjac":"Computer Programs and Systems, Inc.","kategorija":"Beauty","img":"http://dummyimage.com/175x216.jpg/5fa2dd/ffffff","naziv":"Kiwi Gold Zespri","cena":121.84,"opis":"vel est donec odio justo sollicitudin ut suscipit a feugiat et eros vestibulum ac est lacinia nisi venenatis tristique fusce congue diam id ornare","kolicina":11},
{"id":72,"proizvodjac":"8point3 Energy Partners LP","kategorija":"Outdoors","img":"http://dummyimage.com/130x248.jpg/5fa2dd/ffffff","naziv":"Gelatine Powder","cena":196.12,"opis":"etiam pretium iaculis justo in hac habitasse platea dictumst etiam faucibus cursus urna ut tellus nulla ut erat id mauris vulputate elementum nullam varius nulla facilisi cras non velit nec nisi vulputate nonummy","kolicina":20},
{"id":73,"proizvodjac":"EQT Midstream Partners, LP","kategorija":"Garden","img":"http://dummyimage.com/221x136.jpg/dddddd/000000","naziv":"Pasta - Elbows, Macaroni, Dry","cena":269.31,"opis":"orci vehicula condimentum curabitur in libero ut massa volutpat convallis morbi odio odio elementum eu interdum eu tincidunt in leo maecenas pulvinar lobortis est phasellus sit amet erat nulla tempus vivamus","kolicina":35},
{"id":74,"proizvodjac":"iShares Nasdaq Biotechnology Index Fund","kategorija":"Grocery","img":"http://dummyimage.com/216x225.jpg/ff4444/ffffff","naziv":"Beef - Rouladin, Sliced","cena":194.71,"opis":"convallis morbi odio odio elementum eu interdum eu tincidunt in leo maecenas pulvinar lobortis est phasellus sit amet erat nulla tempus vivamus in felis eu sapien cursus vestibulum proin eu mi nulla","kolicina":38},
{"id":75,"proizvodjac":"FedEx Corporation","kategorija":"Health","img":"http://dummyimage.com/112x200.jpg/5fa2dd/ffffff","naziv":"Juice - Tomato, 48 Oz","cena":150.22,"opis":"volutpat erat quisque erat eros viverra eget congue eget semper rutrum nulla nunc purus phasellus in felis donec semper sapien a libero nam dui proin leo","kolicina":17},
{"id":76,"proizvodjac":"First Financial Northwest, Inc.","kategorija":"Music","img":"http://dummyimage.com/245x190.jpg/dddddd/000000","naziv":"Spice - Onion Powder Granulated","cena":186.29,"opis":"et magnis dis parturient montes nascetur ridiculus mus vivamus vestibulum sagittis sapien cum sociis natoque penatibus et magnis dis parturient montes nascetur ridiculus mus etiam vel augue vestibulum rutrum rutrum neque aenean auctor gravida sem praesent id massa","kolicina":35},
{"id":77,"proizvodjac":"Sierra Bancorp","kategorija":"Automotive","img":"http://dummyimage.com/184x147.jpg/dddddd/000000","naziv":"Sauce - Soya, Dark","cena":215.64,"opis":"tincidunt eu felis fusce posuere felis sed lacus morbi sem mauris laoreet ut rhoncus aliquet pulvinar sed nisl nunc rhoncus dui vel sem sed sagittis nam congue risus semper porta volutpat quam pede lobortis ligula sit amet eleifend pede libero","kolicina":25},
{"id":78,"proizvodjac":"PGT Innovations, Inc.","kategorija":"Jewelery","img":"http://dummyimage.com/102x183.jpg/ff4444/ffffff","naziv":"Orange - Tangerine","cena":263.36,"opis":"tincidunt ante vel ipsum praesent blandit lacinia erat vestibulum sed magna at nunc commodo placerat praesent blandit nam nulla integer pede justo lacinia eget tincidunt eget tempus vel pede morbi porttitor lorem id ligula suspendisse ornare consequat","kolicina":35},
{"id":79,"proizvodjac":"DAQO New Energy Corp.","kategorija":"Books","img":"http://dummyimage.com/133x157.jpg/cc0000/ffffff","naziv":"Bagel - Ched Chs Presliced","cena":251.59,"opis":"duis mattis egestas metus aenean fermentum donec ut mauris eget massa tempor convallis nulla neque libero convallis eget eleifend luctus ultricies eu nibh quisque id","kolicina":42},
{"id":80,"proizvodjac":"NovoCure Limited","kategorija":"Outdoors","img":"http://dummyimage.com/215x144.jpg/cc0000/ffffff","naziv":"Coconut Milk - Unsweetened","cena":193.02,"opis":"turpis a pede posuere nonummy integer non velit donec diam neque vestibulum eget vulputate ut ultrices vel augue vestibulum ante ipsum primis in faucibus orci luctus et ultrices posuere cubilia curae","kolicina":8},
{"id":81,"proizvodjac":"TrueCar, Inc.","kategorija":"Kids","img":"http://dummyimage.com/172x140.jpg/ff4444/ffffff","naziv":"Shortbread - Cookie Crumbs","cena":196.79,"opis":"non mattis pulvinar nulla pede ullamcorper augue a suscipit nulla elit ac nulla sed vel enim sit amet nunc viverra dapibus nulla suscipit ligula in lacus curabitur at ipsum ac tellus semper interdum mauris ullamcorper","kolicina":46},
{"id":82,"proizvodjac":"Royal Bank Of Canada","kategorija":"Outdoors","img":"http://dummyimage.com/108x232.jpg/ff4444/ffffff","naziv":"Chutney Sauce - Mango","cena":186.32,"opis":"pede posuere nonummy integer non velit donec diam neque vestibulum eget vulputate ut ultrices vel augue vestibulum ante ipsum primis in faucibus orci luctus et ultrices posuere cubilia curae donec pharetra magna vestibulum aliquet ultrices erat","kolicina":21},
{"id":83,"proizvodjac":"DAVIDsTEA Inc.","kategorija":"Games","img":"http://dummyimage.com/104x187.jpg/5fa2dd/ffffff","naziv":"Coffee - Beans, Whole","cena":213.77,"opis":"neque libero convallis eget eleifend luctus ultricies eu nibh quisque id justo sit amet sapien dignissim vestibulum vestibulum ante ipsum primis in faucibus orci luctus et","kolicina":25},
{"id":84,"proizvodjac":"LaSalle Hotel Properties","kategorija":"Industrial","img":"http://dummyimage.com/165x216.jpg/dddddd/000000","naziv":"Pork - Bacon, Sliced","cena":184.68,"opis":"ac enim in tempor turpis nec euismod scelerisque quam turpis adipiscing lorem vitae mattis nibh ligula nec sem duis aliquam convallis nunc proin at turpis a pede posuere nonummy integer non velit donec diam neque vestibulum eget vulputate","kolicina":3},
{"id":85,"proizvodjac":"Enphase Energy, Inc.","kategorija":"Movies","img":"http://dummyimage.com/203x131.jpg/ff4444/ffffff","naziv":"Rice - Basmati","cena":127.4,"opis":"odio elementum eu interdum eu tincidunt in leo maecenas pulvinar lobortis est phasellus sit amet erat nulla tempus vivamus in felis eu sapien cursus vestibulum proin eu mi nulla ac enim in tempor turpis nec","kolicina":49},
{"id":86,"proizvodjac":"Yum! Brands, Inc.","kategorija":"Computers","img":"http://dummyimage.com/240x185.jpg/5fa2dd/ffffff","naziv":"Walkers Special Old Whiskey","cena":204.84,"opis":"cras pellentesque volutpat dui maecenas tristique est et tempus semper est quam pharetra magna ac consequat metus sapien ut nunc vestibulum ante ipsum","kolicina":20},
{"id":87,"proizvodjac":"Cinedigm Corp","kategorija":"Grocery","img":"http://dummyimage.com/151x135.jpg/cc0000/ffffff","naziv":"Longos - Burritos","cena":194.06,"opis":"tincidunt lacus at velit vivamus vel nulla eget eros elementum pellentesque quisque porta volutpat erat quisque erat eros viverra eget congue eget semper rutrum nulla nunc purus phasellus","kolicina":42},
{"id":88,"proizvodjac":"National General Holdings Corp","kategorija":"Books","img":"http://dummyimage.com/215x122.jpg/5fa2dd/ffffff","naziv":"Wine - Fat Bastard Merlot","cena":203.17,"opis":"vel est donec odio justo sollicitudin ut suscipit a feugiat et eros vestibulum ac est lacinia nisi venenatis tristique fusce congue diam id ornare imperdiet sapien urna pretium nisl ut volutpat sapien arcu sed augue","kolicina":22},
{"id":89,"proizvodjac":"Bank Of Montreal","kategorija":"Home","img":"http://dummyimage.com/109x218.jpg/ff4444/ffffff","naziv":"Yoplait - Strawbrasp Peac","cena":230.54,"opis":"cubilia curae duis faucibus accumsan odio curabitur convallis duis consequat dui nec nisi volutpat eleifend donec ut dolor morbi vel lectus in quam fringilla rhoncus mauris enim leo rhoncus","kolicina":42},
{"id":90,"proizvodjac":"EOG Resources, Inc.","kategorija":"Automotive","img":"http://dummyimage.com/244x243.jpg/5fa2dd/ffffff","naziv":"Schnappes - Peach, Walkers","cena":210.78,"opis":"massa id lobortis convallis tortor risus dapibus augue vel accumsan tellus nisi eu orci mauris lacinia sapien quis libero nullam sit amet turpis elementum ligula vehicula consequat morbi a ipsum integer a nibh in quis justo maecenas rhoncus aliquam lacus","kolicina":18},
{"id":91,"proizvodjac":"Nike, Inc.","kategorija":"Toys","img":"http://dummyimage.com/188x113.jpg/ff4444/ffffff","naziv":"Beef - Tender Tips","cena":227.48,"opis":"lobortis ligula sit amet eleifend pede libero quis orci nullam molestie nibh in lectus pellentesque at nulla suspendisse potenti cras in purus eu magna vulputate luctus cum sociis natoque penatibus et magnis dis parturient montes nascetur ridiculus mus vivamus vestibulum","kolicina":1},
{"id":92,"proizvodjac":"Monroe Capital Corporation","kategorija":"Industrial","img":"http://dummyimage.com/108x221.jpg/cc0000/ffffff","naziv":"Island Oasis - Pina Colada","cena":225.01,"opis":"ut at dolor quis odio consequat varius integer ac leo pellentesque ultrices mattis odio donec vitae nisi nam ultrices libero non","kolicina":1},
{"id":93,"proizvodjac":"Strongbridge Biopharma plc","kategorija":"Baby","img":"http://dummyimage.com/103x165.jpg/5fa2dd/ffffff","naziv":"Water - Aquafina Vitamin","cena":231.61,"opis":"mollis molestie lorem quisque ut erat curabitur gravida nisi at nibh in hac habitasse platea dictumst aliquam augue quam sollicitudin vitae consectetuer eget rutrum at lorem","kolicina":49},
{"id":94,"proizvodjac":"Brasilagro Cia Brasileira De Propriedades Agricolas","kategorija":"Music","img":"http://dummyimage.com/123x175.jpg/ff4444/ffffff","naziv":"Squash - Guords","cena":330.68,"opis":"neque vestibulum eget vulputate ut ultrices vel augue vestibulum ante ipsum primis in faucibus orci luctus et ultrices posuere cubilia curae donec pharetra magna vestibulum aliquet ultrices erat tortor sollicitudin mi sit amet lobortis sapien","kolicina":24},
{"id":95,"proizvodjac":"The Habit Restaurants, Inc.","kategorija":"Movies","img":"http://dummyimage.com/235x157.jpg/5fa2dd/ffffff","naziv":"Muffin Hinge Container 6","cena":199.17,"opis":"morbi odio odio elementum eu interdum eu tincidunt in leo maecenas pulvinar lobortis est phasellus sit amet erat nulla tempus vivamus in felis eu sapien cursus vestibulum proin eu mi nulla ac","kolicina":32},
{"id":96,"proizvodjac":"Regency Centers Corporation","kategorija":"Sports","img":"http://dummyimage.com/183x222.jpg/cc0000/ffffff","naziv":"Sage Ground Wiberg","cena":242.08,"opis":"dignissim vestibulum vestibulum ante ipsum primis in faucibus orci luctus et ultrices posuere cubilia curae nulla dapibus dolor vel est donec","kolicina":33},
{"id":97,"proizvodjac":"John Hancock Financial Opportunities Fund","kategorija":"Health","img":"http://dummyimage.com/125x127.jpg/cc0000/ffffff","naziv":"Catfish - Fillets","cena":177.21,"opis":"nulla justo aliquam quis turpis eget elit sodales scelerisque mauris sit amet eros suspendisse accumsan tortor quis turpis sed ante vivamus tortor duis mattis egestas metus aenean fermentum donec ut mauris eget","kolicina":25},
{"id":98,"proizvodjac":"Aspen Insurance Holdings Limited","kategorija":"Jewelery","img":"http://dummyimage.com/228x231.jpg/dddddd/000000","naziv":"Island Oasis - Mango Daiquiri","cena":232.23,"opis":"eros viverra eget congue eget semper rutrum nulla nunc purus phasellus in felis donec semper sapien a libero nam dui proin leo odio porttitor id consequat","kolicina":2},
{"id":99,"proizvodjac":"ShoreTel, Inc.","kategorija":"Outdoors","img":"http://dummyimage.com/152x199.jpg/ff4444/ffffff","naziv":"Brandy Apricot","cena":178.33,"opis":"cras in purus eu magna vulputate luctus cum sociis natoque penatibus et magnis dis parturient montes nascetur ridiculus mus vivamus vestibulum sagittis sapien cum sociis natoque penatibus et magnis dis","kolicina":43},
{"id":100,"proizvodjac":"Microsoft Corporation","kategorija":"Electronics","img":"http://dummyimage.com/145x122.jpg/dddddd/000000","naziv":"Squash - Acorn","cena":221.21,"opis":"id pretium iaculis diam erat fermentum justo nec condimentum neque sapien placerat ante nulla justo aliquam quis turpis eget elit sodales scelerisque mauris sit","kolicina":35},
{"id":101,"proizvodjac":"Principal Healthcare Innovators Index ETF","kategorija":"Home","img":"http://dummyimage.com/213x224.jpg/5fa2dd/ffffff","naziv":"Extract - Rum","cena":238.19,"opis":"pretium iaculis diam erat fermentum justo nec condimentum neque sapien placerat ante nulla justo aliquam quis turpis eget elit sodales scelerisque mauris sit amet eros suspendisse accumsan tortor quis turpis sed ante vivamus tortor duis mattis egestas metus aenean fermentum","kolicina":49},
{"id":102,"proizvodjac":"PIMCO Commercial Mortgage Securities Trust, Inc.","kategorija":"Clothing","img":"http://dummyimage.com/193x142.jpg/cc0000/ffffff","naziv":"Veal - Inside","cena":182.21,"opis":"montes nascetur ridiculus mus vivamus vestibulum sagittis sapien cum sociis natoque penatibus et magnis dis parturient montes nascetur ridiculus mus etiam vel","kolicina":35},
{"id":103,"proizvodjac":"Star Bulk Carriers Corp.","kategorija":"Clothing","img":"http://dummyimage.com/105x119.jpg/ff4444/ffffff","naziv":"Beef - Bresaola","cena":146.1,"opis":"tellus nulla ut erat id mauris vulputate elementum nullam varius nulla facilisi cras non velit nec nisi vulputate nonummy maecenas tincidunt lacus at velit vivamus vel nulla eget eros elementum pellentesque","kolicina":43},
{"id":104,"proizvodjac":"Korea Fund, Inc. (The)","kategorija":"Kids","img":"http://dummyimage.com/130x215.jpg/cc0000/ffffff","naziv":"Soup - Campbells - Tomato","cena":272.75,"opis":"suspendisse potenti cras in purus eu magna vulputate luctus cum sociis natoque penatibus et magnis dis parturient montes nascetur ridiculus mus vivamus vestibulum","kolicina":19},
{"id":105,"proizvodjac":"Acacia Research Corporation","kategorija":"Games","img":"http://dummyimage.com/208x235.jpg/ff4444/ffffff","naziv":"Beans - Soya Bean","cena":151.2,"opis":"et tempus semper est quam pharetra magna ac consequat metus sapien ut nunc vestibulum ante ipsum primis in faucibus orci luctus et ultrices posuere cubilia curae mauris viverra diam vitae quam suspendisse potenti","kolicina":9},
{"id":106,"proizvodjac":"Kingtone Wirelessinfo Solution Holding Ltd","kategorija":"Music","img":"http://dummyimage.com/148x118.jpg/ff4444/ffffff","naziv":"Ginger - Ground","cena":271.46,"opis":"ac consequat metus sapien ut nunc vestibulum ante ipsum primis in faucibus orci luctus et ultrices posuere cubilia curae mauris viverra diam vitae quam suspendisse potenti nullam porttitor lacus at turpis donec posuere metus vitae ipsum aliquam non","kolicina":28},
{"id":107,"proizvodjac":"National Bank Holdings Corporation","kategorija":"Music","img":"http://dummyimage.com/195x186.jpg/ff4444/ffffff","naziv":"Chocolate - Compound Coating","cena":157.24,"opis":"nonummy maecenas tincidunt lacus at velit vivamus vel nulla eget eros elementum pellentesque quisque porta volutpat erat quisque erat eros viverra eget congue eget semper rutrum nulla nunc purus phasellus in felis donec","kolicina":13},
{"id":108,"proizvodjac":"HD Supply Holdings, Inc.","kategorija":"Toys","img":"http://dummyimage.com/226x225.jpg/ff4444/ffffff","naziv":"Foam Dinner Plate","cena":230.29,"opis":"sollicitudin vitae consectetuer eget rutrum at lorem integer tincidunt ante vel ipsum praesent blandit lacinia erat vestibulum sed magna at nunc commodo placerat praesent blandit nam nulla integer pede justo lacinia eget tincidunt eget tempus","kolicina":30},
{"id":109,"proizvodjac":"Syntel, Inc.","kategorija":"Tools","img":"http://dummyimage.com/186x151.jpg/dddddd/000000","naziv":"Pernod","cena":282.31,"opis":"sit amet turpis elementum ligula vehicula consequat morbi a ipsum integer a nibh in quis justo maecenas rhoncus aliquam lacus morbi quis tortor id nulla","kolicina":21},
{"id":110,"proizvodjac":"PLx Pharma Inc.","kategorija":"Kids","img":"http://dummyimage.com/189x240.jpg/cc0000/ffffff","naziv":"Pancetta","cena":248.73,"opis":"ac nibh fusce lacus purus aliquet at feugiat non pretium quis lectus suspendisse potenti in eleifend quam a odio in hac habitasse platea dictumst maecenas ut massa quis augue luctus tincidunt nulla mollis molestie lorem quisque ut erat curabitur","kolicina":41},
{"id":111,"proizvodjac":"J P Morgan Chase & Co","kategorija":"Books","img":"http://dummyimage.com/162x112.jpg/5fa2dd/ffffff","naziv":"Cassis","cena":240.38,"opis":"tempus semper est quam pharetra magna ac consequat metus sapien ut nunc vestibulum ante ipsum primis in faucibus orci luctus et ultrices posuere cubilia curae mauris viverra diam vitae quam suspendisse potenti nullam porttitor lacus at","kolicina":23},
{"id":112,"proizvodjac":"CSP Inc.","kategorija":"Baby","img":"http://dummyimage.com/125x152.jpg/5fa2dd/ffffff","naziv":"Shrimp - 16/20, Iqf, Shell On","cena":98.84,"opis":"integer ac leo pellentesque ultrices mattis odio donec vitae nisi nam ultrices libero non mattis pulvinar nulla pede ullamcorper augue a suscipit nulla elit ac nulla sed vel enim sit amet nunc viverra dapibus","kolicina":45},
{"id":113,"proizvodjac":"Energen Corporation","kategorija":"Tools","img":"http://dummyimage.com/167x245.jpg/ff4444/ffffff","naziv":"Sauce - Vodka Blush","cena":199.25,"opis":"turpis nec euismod scelerisque quam turpis adipiscing lorem vitae mattis nibh ligula nec sem duis aliquam convallis nunc proin at turpis a pede posuere nonummy integer non velit donec diam neque vestibulum eget vulputate ut ultrices vel augue","kolicina":21},
{"id":114,"proizvodjac":"National American University Holdings, Inc.","kategorija":"Games","img":"http://dummyimage.com/184x148.jpg/5fa2dd/ffffff","naziv":"Sauce - Alfredo","cena":164.11,"opis":"pretium nisl ut volutpat sapien arcu sed augue aliquam erat volutpat in congue etiam justo etiam pretium iaculis justo in","kolicina":29},
{"id":115,"proizvodjac":"Nuveen Insured California Select Tax-Free Income Portfolio","kategorija":"Grocery","img":"http://dummyimage.com/129x143.jpg/dddddd/000000","naziv":"Cookies - Amaretto","cena":198.66,"opis":"sit amet turpis elementum ligula vehicula consequat morbi a ipsum integer a nibh in quis justo maecenas rhoncus aliquam lacus morbi quis","kolicina":4},
{"id":116,"proizvodjac":"Patterson-UTI Energy, Inc.","kategorija":"Grocery","img":"http://dummyimage.com/122x125.jpg/cc0000/ffffff","naziv":"Strawberries - California","cena":160.26,"opis":"dapibus augue vel accumsan tellus nisi eu orci mauris lacinia sapien quis libero nullam sit amet turpis elementum ligula vehicula consequat morbi a ipsum integer a nibh in quis justo","kolicina":31},
{"id":117,"proizvodjac":"ClearBridge Large Cap Growth ESG ETF","kategorija":"Kids","img":"http://dummyimage.com/101x158.jpg/cc0000/ffffff","naziv":"Alize Gold Passion","cena":239.61,"opis":"aliquet maecenas leo odio condimentum id luctus nec molestie sed justo pellentesque viverra pede ac diam cras pellentesque volutpat dui maecenas tristique est et tempus semper est","kolicina":25},
{"id":118,"proizvodjac":"RADA Electronic Industries Ltd.","kategorija":"Tools","img":"http://dummyimage.com/108x162.jpg/5fa2dd/ffffff","naziv":"Beer - Camerons Auburn","cena":184.47,"opis":"elit ac nulla sed vel enim sit amet nunc viverra dapibus nulla suscipit ligula in lacus curabitur at ipsum ac tellus semper","kolicina":27},
{"id":119,"proizvodjac":"Shopify Inc.","kategorija":"Music","img":"http://dummyimage.com/186x108.jpg/ff4444/ffffff","naziv":"Oil - Hazelnut","cena":284.29,"opis":"convallis nunc proin at turpis a pede posuere nonummy integer non velit donec diam neque vestibulum eget vulputate ut ultrices vel augue vestibulum ante ipsum primis in faucibus orci luctus","kolicina":29},
{"id":120,"proizvodjac":"PNC Financial Services Group, Inc. (The)","kategorija":"Industrial","img":"http://dummyimage.com/222x183.jpg/dddddd/000000","naziv":"Table Cloth 54x72 Colour","cena":201.84,"opis":"pede ullamcorper augue a suscipit nulla elit ac nulla sed vel enim sit amet nunc viverra dapibus nulla suscipit ligula in lacus curabitur at ipsum ac tellus semper interdum mauris ullamcorper","kolicina":22},
{"id":121,"proizvodjac":"Albemarle Corporation","kategorija":"Kids","img":"http://dummyimage.com/223x176.jpg/ff4444/ffffff","naziv":"Wine - Red Oakridge Merlot","cena":184.25,"opis":"id ligula suspendisse ornare consequat lectus in est risus auctor sed tristique in tempus sit amet sem fusce consequat nulla nisl nunc nisl duis","kolicina":45},
{"id":122,"proizvodjac":"Comfort Systems USA, Inc.","kategorija":"Toys","img":"http://dummyimage.com/166x242.jpg/cc0000/ffffff","naziv":"Longos - Chicken Caeser Salad","cena":159.79,"opis":"consequat lectus in est risus auctor sed tristique in tempus sit amet sem fusce consequat nulla nisl nunc nisl duis bibendum felis sed interdum venenatis turpis enim blandit mi in porttitor pede justo eu massa donec dapibus duis","kolicina":31},
{"id":123,"proizvodjac":"Camden National Corporation","kategorija":"Computers","img":"http://dummyimage.com/167x173.jpg/ff4444/ffffff","naziv":"Cinnamon - Ground","cena":204.68,"opis":"lectus aliquam sit amet diam in magna bibendum imperdiet nullam orci pede venenatis non sodales sed tincidunt eu felis fusce posuere felis sed lacus","kolicina":40},
{"id":124,"proizvodjac":"Paycom Software, Inc.","kategorija":"Grocery","img":"http://dummyimage.com/137x215.jpg/ff4444/ffffff","naziv":"Sauce - Alfredo","cena":210.26,"opis":"enim blandit mi in porttitor pede justo eu massa donec dapibus duis at velit eu est congue elementum in hac habitasse platea","kolicina":50},
{"id":125,"proizvodjac":"Electrum Special Acquisition Corporation","kategorija":"Music","img":"http://dummyimage.com/231x185.jpg/ff4444/ffffff","naziv":"Bag - Bread, White, Plain","cena":160.18,"opis":"id justo sit amet sapien dignissim vestibulum vestibulum ante ipsum primis in faucibus orci luctus et ultrices posuere cubilia curae nulla dapibus dolor vel est donec odio justo sollicitudin ut suscipit a feugiat","kolicina":27},
{"id":126,"proizvodjac":"Fly Leasing Limited","kategorija":"Jewelery","img":"http://dummyimage.com/229x151.jpg/dddddd/000000","naziv":"Lettuce - Mini Greens, Whole","cena":211.32,"opis":"volutpat eleifend donec ut dolor morbi vel lectus in quam fringilla rhoncus mauris enim leo rhoncus sed vestibulum sit amet cursus id","kolicina":32},
{"id":127,"proizvodjac":"Quality Systems, Inc.","kategorija":"Clothing","img":"http://dummyimage.com/145x185.jpg/5fa2dd/ffffff","naziv":"Table Cloth - 53x69 Colour","cena":215.42,"opis":"consectetuer adipiscing elit proin interdum mauris non ligula pellentesque ultrices phasellus id sapien in sapien iaculis congue vivamus metus arcu adipiscing molestie hendrerit at vulputate vitae nisl aenean lectus pellentesque eget nunc","kolicina":24},
{"id":128,"proizvodjac":"First Trust Mid Cap Value AlphaDEX Fund","kategorija":"Tools","img":"http://dummyimage.com/194x209.jpg/dddddd/000000","naziv":"Mahi Mahi","cena":152.26,"opis":"quam nec dui luctus rutrum nulla tellus in sagittis dui vel nisl duis ac nibh fusce lacus purus aliquet at feugiat non pretium quis lectus suspendisse","kolicina":8},
{"id":129,"proizvodjac":"TransMontaigne Partners L.P.","kategorija":"Clothing","img":"http://dummyimage.com/168x119.jpg/ff4444/ffffff","naziv":"Bonito Flakes - Toku Katsuo","cena":192.85,"opis":"nisi at nibh in hac habitasse platea dictumst aliquam augue quam sollicitudin vitae consectetuer eget rutrum at lorem integer tincidunt ante vel ipsum praesent blandit lacinia erat vestibulum sed magna at nunc commodo placerat praesent blandit nam nulla integer pede","kolicina":22},
{"id":130,"proizvodjac":"MetLife, Inc.","kategorija":"Grocery","img":"http://dummyimage.com/162x190.jpg/dddddd/000000","naziv":"Pumpkin","cena":214.97,"opis":"fusce consequat nulla nisl nunc nisl duis bibendum felis sed interdum venenatis turpis enim blandit mi in porttitor pede justo eu massa donec dapibus duis at velit eu est congue","kolicina":15},
{"id":131,"proizvodjac":"AmeriServ Financial Inc.","kategorija":"Outdoors","img":"http://dummyimage.com/168x167.jpg/dddddd/000000","naziv":"Vermacelli - Sprinkles, Assorted","cena":185.28,"opis":"ipsum primis in faucibus orci luctus et ultrices posuere cubilia curae mauris viverra diam vitae quam suspendisse potenti nullam porttitor","kolicina":23},
{"id":132,"proizvodjac":"GCP Applied Technologies Inc.","kategorija":"Home","img":"http://dummyimage.com/124x198.jpg/cc0000/ffffff","naziv":"Seabream Whole Farmed","cena":187.58,"opis":"duis bibendum morbi non quam nec dui luctus rutrum nulla tellus in sagittis dui vel nisl duis ac nibh fusce lacus purus aliquet at feugiat non pretium","kolicina":44},
{"id":133,"proizvodjac":"Nuven Mortgage Opportunity Term Fund 2","kategorija":"Computers","img":"http://dummyimage.com/159x158.jpg/ff4444/ffffff","naziv":"Sobe - Orange Carrot","cena":222.0,"opis":"vestibulum sit amet cursus id turpis integer aliquet massa id lobortis convallis tortor risus dapibus augue vel accumsan tellus nisi eu orci mauris lacinia sapien quis libero nullam sit amet turpis elementum ligula vehicula consequat morbi a ipsum integer","kolicina":8},
{"id":134,"proizvodjac":"Monsanto Company","kategorija":"Baby","img":"http://dummyimage.com/185x130.jpg/5fa2dd/ffffff","naziv":"Dill - Primerba, Paste","cena":218.6,"opis":"imperdiet nullam orci pede venenatis non sodales sed tincidunt eu felis fusce posuere felis sed lacus morbi sem mauris laoreet","kolicina":34},
{"id":135,"proizvodjac":"Wesco Aircraft Holdings, Inc.","kategorija":"Home","img":"http://dummyimage.com/130x188.jpg/5fa2dd/ffffff","naziv":"Hickory Smoke, Liquid","cena":229.05,"opis":"arcu adipiscing molestie hendrerit at vulputate vitae nisl aenean lectus pellentesque eget nunc donec quis orci eget orci vehicula condimentum curabitur in libero ut massa volutpat convallis morbi odio odio elementum eu interdum eu","kolicina":12},
{"id":136,"proizvodjac":"Mid Penn Bancorp","kategorija":"Health","img":"http://dummyimage.com/101x106.jpg/ff4444/ffffff","naziv":"Taro Leaves","cena":133.31,"opis":"curae duis faucibus accumsan odio curabitur convallis duis consequat dui nec nisi volutpat eleifend donec ut dolor morbi vel lectus in quam fringilla rhoncus mauris enim leo rhoncus sed vestibulum sit amet cursus","kolicina":29},
{"id":137,"proizvodjac":"Merrill Lynch & Co., Inc.","kategorija":"Home","img":"http://dummyimage.com/193x213.jpg/5fa2dd/ffffff","naziv":"Veal - Slab Bacon","cena":153.95,"opis":"libero quis orci nullam molestie nibh in lectus pellentesque at nulla suspendisse potenti cras in purus eu magna vulputate luctus cum sociis natoque penatibus et magnis","kolicina":29},
{"id":138,"proizvodjac":"Synnex Corporation","kategorija":"Computers","img":"http://dummyimage.com/227x239.jpg/5fa2dd/ffffff","naziv":"Russian Prince","cena":194.61,"opis":"nisl ut volutpat sapien arcu sed augue aliquam erat volutpat in congue etiam justo etiam pretium iaculis justo in hac habitasse platea dictumst etiam faucibus cursus urna ut tellus nulla ut","kolicina":46},
{"id":139,"proizvodjac":"First Trust High Income Long Short Fund","kategorija":"Kids","img":"http://dummyimage.com/125x222.jpg/5fa2dd/ffffff","naziv":"Club Soda - Schweppes, 355 Ml","cena":220.67,"opis":"erat volutpat in congue etiam justo etiam pretium iaculis justo in hac habitasse platea dictumst etiam faucibus cursus urna ut tellus nulla ut erat id mauris vulputate elementum nullam varius nulla facilisi cras non velit nec nisi vulputate","kolicina":36},
{"id":140,"proizvodjac":"RigNet, Inc.","kategorija":"Games","img":"http://dummyimage.com/231x222.jpg/dddddd/000000","naziv":"Figs","cena":166.72,"opis":"volutpat sapien arcu sed augue aliquam erat volutpat in congue etiam justo etiam pretium iaculis justo in hac habitasse platea dictumst etiam faucibus cursus urna ut tellus","kolicina":50},
{"id":141,"proizvodjac":"Entravision Communications Corporation","kategorija":"Garden","img":"http://dummyimage.com/107x218.jpg/5fa2dd/ffffff","naziv":"Veal - Loin","cena":144.73,"opis":"vel nisl duis ac nibh fusce lacus purus aliquet at feugiat non pretium quis lectus suspendisse potenti in eleifend quam a odio","kolicina":10},
{"id":142,"proizvodjac":"Hilltop Holdings Inc.","kategorija":"Jewelery","img":"http://dummyimage.com/108x127.jpg/ff4444/ffffff","naziv":"Wine - Rosso Toscano Igt","cena":247.17,"opis":"nulla neque libero convallis eget eleifend luctus ultricies eu nibh quisque id justo sit amet sapien dignissim vestibulum vestibulum ante ipsum primis in faucibus","kolicina":45},
{"id":143,"proizvodjac":"HomeTown Bankshares Corporation","kategorija":"Music","img":"http://dummyimage.com/233x166.jpg/ff4444/ffffff","naziv":"Skewers - Bamboo","cena":169.27,"opis":"nascetur ridiculus mus etiam vel augue vestibulum rutrum rutrum neque aenean auctor gravida sem praesent id massa id nisl venenatis lacinia aenean sit amet justo morbi ut odio cras mi pede malesuada in imperdiet et commodo vulputate justo in","kolicina":0},
{"id":144,"proizvodjac":"Goldman Sachs Group, Inc. (The)","kategorija":"Music","img":"http://dummyimage.com/179x171.jpg/5fa2dd/ffffff","naziv":"Seabream Whole Farmed","cena":194.46,"opis":"a libero nam dui proin leo odio porttitor id consequat in consequat ut nulla sed accumsan felis ut at dolor quis odio consequat varius integer ac leo","kolicina":4},
{"id":145,"proizvodjac":"EOG Resources, Inc.","kategorija":"Baby","img":"http://dummyimage.com/198x196.jpg/ff4444/ffffff","naziv":"Onions - Green","cena":191.48,"opis":"imperdiet sapien urna pretium nisl ut volutpat sapien arcu sed augue aliquam erat volutpat in congue etiam justo etiam pretium iaculis justo in hac habitasse platea dictumst etiam faucibus cursus urna ut tellus nulla ut erat id mauris vulputate elementum","kolicina":38},
{"id":146,"proizvodjac":"First Trust Brazil AlphaDEX Fund","kategorija":"Jewelery","img":"http://dummyimage.com/197x209.jpg/dddddd/000000","naziv":"Pineapple - Canned, Rings","cena":131.66,"opis":"nam congue risus semper porta volutpat quam pede lobortis ligula sit amet eleifend pede libero quis orci nullam molestie nibh in lectus pellentesque at nulla suspendisse","kolicina":20},
{"id":147,"proizvodjac":"Daseke, Inc.","kategorija":"Industrial","img":"http://dummyimage.com/166x101.jpg/5fa2dd/ffffff","naziv":"Wine - White, Mosel Gold","cena":145.08,"opis":"eros viverra eget congue eget semper rutrum nulla nunc purus phasellus in felis donec semper sapien a libero nam dui proin leo odio porttitor","kolicina":14},
{"id":148,"proizvodjac":"Immuron Limited","kategorija":"Tools","img":"http://dummyimage.com/160x144.jpg/5fa2dd/ffffff","naziv":"Country Roll","cena":203.67,"opis":"ante vestibulum ante ipsum primis in faucibus orci luctus et ultrices posuere cubilia curae duis faucibus accumsan odio curabitur convallis duis consequat dui nec nisi volutpat","kolicina":28},
{"id":149,"proizvodjac":"Spectrum Pharmaceuticals, Inc.","kategorija":"Baby","img":"http://dummyimage.com/124x155.jpg/ff4444/ffffff","naziv":"Pails With Lids","cena":187.35,"opis":"aliquet at feugiat non pretium quis lectus suspendisse potenti in eleifend quam a odio in hac habitasse platea dictumst maecenas ut massa quis augue luctus","kolicina":11},
{"id":150,"proizvodjac":"Landcadia Holdings, Inc.","kategorija":"Clothing","img":"http://dummyimage.com/146x188.jpg/dddddd/000000","naziv":"Papadam","cena":163.52,"opis":"in tempus sit amet sem fusce consequat nulla nisl nunc nisl duis bibendum felis sed interdum venenatis turpis enim blandit mi in porttitor pede justo eu massa donec dapibus duis at velit eu est congue elementum in hac habitasse","kolicina":30},
{"id":151,"proizvodjac":"MTGE Investment Corp.","kategorija":"Toys","img":"http://dummyimage.com/248x159.jpg/dddddd/000000","naziv":"Pork - Hock And Feet Attached","cena":283.88,"opis":"sapien placerat ante nulla justo aliquam quis turpis eget elit sodales scelerisque mauris sit amet eros suspendisse accumsan tortor quis turpis sed","kolicina":36},
{"id":152,"proizvodjac":"Dollar General Corporation","kategorija":"Home","img":"http://dummyimage.com/120x158.jpg/5fa2dd/ffffff","naziv":"Lemons","cena":204.79,"opis":"nam dui proin leo odio porttitor id consequat in consequat ut nulla sed accumsan felis ut at dolor quis odio consequat varius integer ac leo pellentesque ultrices mattis odio donec vitae nisi nam ultrices libero","kolicina":20},
{"id":153,"proizvodjac":"Square, Inc.","kategorija":"Beauty","img":"http://dummyimage.com/117x213.jpg/5fa2dd/ffffff","naziv":"Fish - Atlantic Salmon, Cold","cena":276.38,"opis":"dictumst aliquam augue quam sollicitudin vitae consectetuer eget rutrum at lorem integer tincidunt ante vel ipsum praesent blandit lacinia erat","kolicina":41},
{"id":154,"proizvodjac":"Morgan Stanley","kategorija":"Toys","img":"http://dummyimage.com/133x212.jpg/dddddd/000000","naziv":"Beef - Tender Tips","cena":170.42,"opis":"morbi ut odio cras mi pede malesuada in imperdiet et commodo vulputate justo in blandit ultrices enim lorem ipsum dolor sit","kolicina":6},
{"id":155,"proizvodjac":"Bridgepoint Education, Inc.","kategorija":"Outdoors","img":"http://dummyimage.com/150x246.jpg/dddddd/000000","naziv":"Wine - Gato Negro Cabernet","cena":153.52,"opis":"cras pellentesque volutpat dui maecenas tristique est et tempus semper est quam pharetra magna ac consequat metus sapien ut nunc vestibulum ante ipsum primis in faucibus","kolicina":36},
{"id":156,"proizvodjac":"First Trust New Opportunities MLP & Energy Fund","kategorija":"Industrial","img":"http://dummyimage.com/188x194.jpg/5fa2dd/ffffff","naziv":"Soup - Campbells Broccoli","cena":186.01,"opis":"feugiat non pretium quis lectus suspendisse potenti in eleifend quam a odio in hac habitasse platea dictumst maecenas ut massa quis augue luctus tincidunt nulla mollis molestie lorem quisque ut","kolicina":5},
{"id":157,"proizvodjac":"Lehman ABS Corporation","kategorija":"Jewelery","img":"http://dummyimage.com/214x180.jpg/cc0000/ffffff","naziv":"Juice - Pineapple, 341 Ml","cena":304.69,"opis":"odio porttitor id consequat in consequat ut nulla sed accumsan felis ut at dolor quis odio consequat varius integer ac leo pellentesque ultrices mattis odio donec vitae nisi nam ultrices libero non mattis pulvinar nulla pede ullamcorper","kolicina":23},
{"id":158,"proizvodjac":"Educational Development Corporation","kategorija":"Home","img":"http://dummyimage.com/239x167.jpg/ff4444/ffffff","naziv":"Wine - Zonnebloem Pinotage","cena":255.85,"opis":"elementum eu interdum eu tincidunt in leo maecenas pulvinar lobortis est phasellus sit amet erat nulla tempus vivamus in felis","kolicina":3},
{"id":159,"proizvodjac":"Liberty Media Corporation","kategorija":"Sports","img":"http://dummyimage.com/131x108.jpg/5fa2dd/ffffff","naziv":"Zucchini - Yellow","cena":199.4,"opis":"posuere cubilia curae nulla dapibus dolor vel est donec odio justo sollicitudin ut suscipit a feugiat et eros vestibulum ac est lacinia nisi venenatis tristique fusce congue diam id ornare imperdiet sapien urna","kolicina":23},
{"id":160,"proizvodjac":"Inseego Corp.","kategorija":"Music","img":"http://dummyimage.com/167x129.jpg/cc0000/ffffff","naziv":"Soup - Campbells Chicken","cena":240.29,"opis":"imperdiet sapien urna pretium nisl ut volutpat sapien arcu sed augue aliquam erat volutpat in congue etiam justo etiam pretium iaculis justo in hac habitasse platea dictumst etiam faucibus cursus urna ut tellus nulla","kolicina":31},
{"id":161,"proizvodjac":"pSivida Corp.","kategorija":"Beauty","img":"http://dummyimage.com/180x212.jpg/dddddd/000000","naziv":"Soup - Verve - Chipotle Chicken","cena":174.02,"opis":"vel augue vestibulum ante ipsum primis in faucibus orci luctus et ultrices posuere cubilia curae donec pharetra magna vestibulum aliquet ultrices erat tortor sollicitudin mi sit amet lobortis sapien sapien non mi integer ac neque duis bibendum morbi","kolicina":25},
{"id":162,"proizvodjac":"DelMar Pharmaceuticals, Inc.","kategorija":"Kids","img":"http://dummyimage.com/119x230.jpg/ff4444/ffffff","naziv":"Sugar - Crumb","cena":165.13,"opis":"convallis eget eleifend luctus ultricies eu nibh quisque id justo sit amet sapien dignissim vestibulum vestibulum ante ipsum primis in faucibus orci luctus et ultrices posuere cubilia curae nulla dapibus dolor","kolicina":13},
{"id":163,"proizvodjac":"Liberty Media Corporation","kategorija":"Shoes","img":"http://dummyimage.com/219x154.jpg/cc0000/ffffff","naziv":"Pan Grease","cena":210.98,"opis":"nibh fusce lacus purus aliquet at feugiat non pretium quis lectus suspendisse potenti in eleifend quam a odio in hac habitasse platea dictumst maecenas ut massa quis augue","kolicina":20},
{"id":164,"proizvodjac":"Titan International, Inc.","kategorija":"Computers","img":"http://dummyimage.com/136x130.jpg/dddddd/000000","naziv":"Beer - Sleemans Honey Brown","cena":204.12,"opis":"venenatis non sodales sed tincidunt eu felis fusce posuere felis sed lacus morbi sem mauris laoreet ut rhoncus aliquet pulvinar sed nisl nunc rhoncus","kolicina":23},
{"id":165,"proizvodjac":"Herbalife LTD.","kategorija":"Automotive","img":"http://dummyimage.com/207x208.jpg/cc0000/ffffff","naziv":"Cheese - Taleggio D.o.p.","cena":197.71,"opis":"ipsum integer a nibh in quis justo maecenas rhoncus aliquam lacus morbi quis tortor id nulla ultrices aliquet maecenas leo odio condimentum id luctus nec molestie sed justo pellentesque viverra","kolicina":5},
{"id":166,"proizvodjac":"Liberty Global plc","kategorija":"Outdoors","img":"http://dummyimage.com/197x185.jpg/5fa2dd/ffffff","naziv":"Saskatoon Berries - Frozen","cena":230.82,"opis":"amet eleifend pede libero quis orci nullam molestie nibh in lectus pellentesque at nulla suspendisse potenti cras in purus eu magna vulputate luctus cum sociis natoque penatibus et magnis dis parturient montes nascetur ridiculus mus vivamus vestibulum sagittis sapien","kolicina":46},
{"id":167,"proizvodjac":"GW Pharmaceuticals Plc","kategorija":"Shoes","img":"http://dummyimage.com/146x155.jpg/ff4444/ffffff","naziv":"Appetizer - Shrimp Puff","cena":261.9,"opis":"nunc vestibulum ante ipsum primis in faucibus orci luctus et ultrices posuere cubilia curae mauris viverra diam vitae quam suspendisse potenti","kolicina":44},
{"id":168,"proizvodjac":"Helix Energy Solutions Group, Inc.","kategorija":"Electronics","img":"http://dummyimage.com/189x119.jpg/dddddd/000000","naziv":"Milk - Chocolate 250 Ml","cena":194.57,"opis":"lacinia eget tincidunt eget tempus vel pede morbi porttitor lorem id ligula suspendisse ornare consequat lectus in est risus auctor sed tristique in tempus sit","kolicina":44},
{"id":169,"proizvodjac":"Neurotrope, Inc.","kategorija":"Grocery","img":"http://dummyimage.com/104x154.jpg/cc0000/ffffff","naziv":"Drambuie","cena":201.29,"opis":"maecenas leo odio condimentum id luctus nec molestie sed justo pellentesque viverra pede ac diam cras pellentesque volutpat dui maecenas tristique est et","kolicina":12},
{"id":170,"proizvodjac":"MacroGenics, Inc.","kategorija":"Outdoors","img":"http://dummyimage.com/102x145.jpg/dddddd/000000","naziv":"Cheese Cloth","cena":233.3,"opis":"metus arcu adipiscing molestie hendrerit at vulputate vitae nisl aenean lectus pellentesque eget nunc donec quis orci eget orci vehicula","kolicina":11},
{"id":171,"proizvodjac":"Immune Design Corp.","kategorija":"Electronics","img":"http://dummyimage.com/124x135.jpg/cc0000/ffffff","naziv":"Onions - Dried, Chopped","cena":156.02,"opis":"ut blandit non interdum in ante vestibulum ante ipsum primis in faucibus orci luctus et ultrices posuere cubilia curae duis faucibus accumsan","kolicina":8},
{"id":172,"proizvodjac":"Legg Mason Emerging Markets Diversified Core ETF","kategorija":"Outdoors","img":"http://dummyimage.com/112x103.jpg/ff4444/ffffff","naziv":"Soup - Campbells Chili","cena":224.33,"opis":"vitae consectetuer eget rutrum at lorem integer tincidunt ante vel ipsum praesent blandit lacinia erat vestibulum sed magna at nunc commodo placerat praesent blandit nam nulla integer pede justo lacinia eget tincidunt eget tempus vel pede morbi porttitor lorem id","kolicina":30},
{"id":173,"proizvodjac":"Mazor Robotics Ltd.","kategorija":"Garden","img":"http://dummyimage.com/129x231.jpg/ff4444/ffffff","naziv":"Wine - Red, Antinori Santa","cena":147.57,"opis":"metus vitae ipsum aliquam non mauris morbi non lectus aliquam sit amet diam in magna bibendum imperdiet nullam orci pede venenatis non sodales sed tincidunt eu felis fusce posuere felis sed lacus morbi sem mauris laoreet","kolicina":42},
{"id":174,"proizvodjac":"voxeljet AG","kategorija":"Electronics","img":"http://dummyimage.com/161x126.jpg/dddddd/000000","naziv":"Gherkin - Sour","cena":217.96,"opis":"felis sed lacus morbi sem mauris laoreet ut rhoncus aliquet pulvinar sed nisl nunc rhoncus dui vel sem sed sagittis nam congue risus","kolicina":21},
{"id":175,"proizvodjac":"Southwest Gas Holdings, Inc.","kategorija":"Games","img":"http://dummyimage.com/174x136.jpg/cc0000/ffffff","naziv":"Oil - Sesame","cena":179.52,"opis":"a ipsum integer a nibh in quis justo maecenas rhoncus aliquam lacus morbi quis tortor id nulla ultrices aliquet maecenas leo odio condimentum id luctus nec molestie sed justo pellentesque viverra pede","kolicina":9},
{"id":176,"proizvodjac":"Civista Bancshares, Inc. ","kategorija":"Clothing","img":"http://dummyimage.com/198x232.jpg/5fa2dd/ffffff","naziv":"Bananas","cena":224.03,"opis":"leo maecenas pulvinar lobortis est phasellus sit amet erat nulla tempus vivamus in felis eu sapien cursus vestibulum proin eu mi nulla ac","kolicina":14},
{"id":177,"proizvodjac":"W.R. Berkley Corporation","kategorija":"Music","img":"http://dummyimage.com/199x118.jpg/cc0000/ffffff","naziv":"Mayonnaise - Individual Pkg","cena":229.52,"opis":"quam sapien varius ut blandit non interdum in ante vestibulum ante ipsum primis in faucibus orci luctus et ultrices posuere cubilia curae duis faucibus","kolicina":39},
{"id":178,"proizvodjac":"Wells Fargo & Company","kategorija":"Electronics","img":"http://dummyimage.com/113x237.jpg/5fa2dd/ffffff","naziv":"Energy Drink - Franks Pineapple","cena":217.13,"opis":"sem duis aliquam convallis nunc proin at turpis a pede posuere nonummy integer non velit donec diam neque vestibulum eget vulputate ut ultrices vel augue vestibulum ante ipsum primis in faucibus orci luctus","kolicina":40},
{"id":179,"proizvodjac":"AgroFresh Solutions, Inc.","kategorija":"Books","img":"http://dummyimage.com/219x197.jpg/5fa2dd/ffffff","naziv":"Pasta - Ravioli","cena":76.35,"opis":"fusce lacus purus aliquet at feugiat non pretium quis lectus suspendisse potenti in eleifend quam a odio in hac habitasse platea dictumst maecenas ut massa quis augue luctus tincidunt nulla","kolicina":23},
{"id":180,"proizvodjac":"Owens-Illinois, Inc.","kategorija":"Beauty","img":"http://dummyimage.com/211x150.jpg/dddddd/000000","naziv":"Carbonated Water - Cherry","cena":206.11,"opis":"justo nec condimentum neque sapien placerat ante nulla justo aliquam quis turpis eget elit sodales scelerisque mauris sit amet eros suspendisse","kolicina":36},
{"id":181,"proizvodjac":"Marin Software Incorporated","kategorija":"Music","img":"http://dummyimage.com/180x149.jpg/ff4444/ffffff","naziv":"Wine - Bourgogne 2002, La","cena":180.13,"opis":"integer pede justo lacinia eget tincidunt eget tempus vel pede morbi porttitor lorem id ligula suspendisse ornare consequat lectus in est risus auctor sed tristique in tempus sit amet sem fusce consequat nulla nisl nunc","kolicina":14},
{"id":182,"proizvodjac":"Nam Tai Property Inc.","kategorija":"Baby","img":"http://dummyimage.com/215x117.jpg/5fa2dd/ffffff","naziv":"Tea - Lemon Green Tea","cena":170.96,"opis":"feugiat et eros vestibulum ac est lacinia nisi venenatis tristique fusce congue diam id ornare imperdiet sapien urna pretium nisl ut volutpat sapien arcu sed augue aliquam erat volutpat in congue etiam justo etiam pretium iaculis justo in hac","kolicina":20},
{"id":183,"proizvodjac":"SeaSpine Holdings Corporation","kategorija":"Beauty","img":"http://dummyimage.com/119x196.jpg/cc0000/ffffff","naziv":"Sour Puss Raspberry","cena":209.84,"opis":"mattis pulvinar nulla pede ullamcorper augue a suscipit nulla elit ac nulla sed vel enim sit amet nunc viverra dapibus nulla suscipit ligula in lacus curabitur at ipsum ac tellus semper interdum mauris","kolicina":6},
{"id":184,"proizvodjac":"iStar Financial Inc.","kategorija":"Industrial","img":"http://dummyimage.com/144x236.jpg/5fa2dd/ffffff","naziv":"Oil - Peanut","cena":236.57,"opis":"orci nullam molestie nibh in lectus pellentesque at nulla suspendisse potenti cras in purus eu magna vulputate luctus cum sociis natoque penatibus et magnis dis parturient montes nascetur ridiculus mus vivamus","kolicina":26},
{"id":185,"proizvodjac":"VelocityShares Daily Inverse VIX Medium-Term ETN","kategorija":"Beauty","img":"http://dummyimage.com/115x146.jpg/dddddd/000000","naziv":"Cream Of Tartar","cena":162.55,"opis":"sapien varius ut blandit non interdum in ante vestibulum ante ipsum primis in faucibus orci luctus et ultrices posuere cubilia curae duis faucibus accumsan odio curabitur convallis duis","kolicina":13},
{"id":186,"proizvodjac":"Oclaro, Inc.","kategorija":"Kids","img":"http://dummyimage.com/191x215.jpg/ff4444/ffffff","naziv":"Wine - Sawmill Creek Autumn","cena":145.61,"opis":"aenean sit amet justo morbi ut odio cras mi pede malesuada in imperdiet et commodo vulputate justo in blandit ultrices enim lorem ipsum dolor sit amet consectetuer adipiscing","kolicina":20},
{"id":187,"proizvodjac":"GasLog Partners LP","kategorija":"Garden","img":"http://dummyimage.com/227x102.jpg/cc0000/ffffff","naziv":"Juice - Orange","cena":100.46,"opis":"in hac habitasse platea dictumst morbi vestibulum velit id pretium iaculis diam erat fermentum justo nec condimentum neque sapien placerat ante nulla justo aliquam","kolicina":9},
{"id":188,"proizvodjac":"Canon, Inc.","kategorija":"Garden","img":"http://dummyimage.com/202x155.jpg/ff4444/ffffff","naziv":"Flour - Pastry","cena":230.99,"opis":"mattis nibh ligula nec sem duis aliquam convallis nunc proin at turpis a pede posuere nonummy integer non velit donec diam neque vestibulum eget vulputate ut ultrices vel augue vestibulum ante ipsum primis in","kolicina":19},
{"id":189,"proizvodjac":"C.R. Bard, Inc.","kategorija":"Beauty","img":"http://dummyimage.com/248x178.jpg/dddddd/000000","naziv":"Bread - Pumpernickel","cena":189.02,"opis":"ante vestibulum ante ipsum primis in faucibus orci luctus et ultrices posuere cubilia curae duis faucibus accumsan odio curabitur convallis","kolicina":39},
{"id":190,"proizvodjac":"Insteel Industries, Inc.","kategorija":"Computers","img":"http://dummyimage.com/196x182.jpg/dddddd/000000","naziv":"Wine - Cahors Ac 2000, Clos","cena":232.9,"opis":"consequat metus sapien ut nunc vestibulum ante ipsum primis in faucibus orci luctus et ultrices posuere cubilia curae mauris viverra diam vitae quam suspendisse potenti nullam porttitor lacus at turpis donec posuere","kolicina":33},
{"id":191,"proizvodjac":"Great Elm Capital Corp.","kategorija":"Outdoors","img":"http://dummyimage.com/127x192.jpg/cc0000/ffffff","naziv":"Wine - Ruffino Chianti","cena":287.92,"opis":"ac leo pellentesque ultrices mattis odio donec vitae nisi nam ultrices libero non mattis pulvinar nulla pede ullamcorper augue a suscipit nulla elit ac nulla sed vel enim sit amet nunc viverra dapibus nulla suscipit ligula in lacus","kolicina":39},
{"id":192,"proizvodjac":"PowerShares Variable Rate Investment Grade Portfolio","kategorija":"Kids","img":"http://dummyimage.com/161x166.jpg/dddddd/000000","naziv":"Buffalo - Short Rib Fresh","cena":270.44,"opis":"scelerisque quam turpis adipiscing lorem vitae mattis nibh ligula nec sem duis aliquam convallis nunc proin at turpis a pede posuere nonummy integer non velit donec","kolicina":27},
{"id":193,"proizvodjac":"Security National Financial Corporation","kategorija":"Kids","img":"http://dummyimage.com/199x187.jpg/cc0000/ffffff","naziv":"Clementine","cena":186.31,"opis":"consequat in consequat ut nulla sed accumsan felis ut at dolor quis odio consequat varius integer ac leo pellentesque ultrices mattis odio donec vitae nisi nam ultrices libero non mattis pulvinar nulla pede ullamcorper augue a suscipit","kolicina":28},
{"id":194,"proizvodjac":"National Energy Services Reunited Corp.","kategorija":"Games","img":"http://dummyimage.com/109x151.jpg/dddddd/000000","naziv":"Potatoes - Idaho 100 Count","cena":255.8,"opis":"nulla mollis molestie lorem quisque ut erat curabitur gravida nisi at nibh in hac habitasse platea dictumst aliquam augue quam sollicitudin vitae consectetuer eget rutrum at lorem integer tincidunt ante vel ipsum praesent blandit lacinia erat vestibulum","kolicina":24},
{"id":195,"proizvodjac":"Urstadt Biddle Properties Inc.","kategorija":"Toys","img":"http://dummyimage.com/114x199.jpg/cc0000/ffffff","naziv":"Muffin Batt - Blueberry Passion","cena":191.01,"opis":"enim blandit mi in porttitor pede justo eu massa donec dapibus duis at velit eu est congue elementum in hac habitasse platea dictumst morbi vestibulum velit id pretium iaculis diam erat","kolicina":0},
{"id":196,"proizvodjac":"Northeast Bancorp","kategorija":"Jewelery","img":"http://dummyimage.com/108x191.jpg/5fa2dd/ffffff","naziv":"Coffee - French Vanilla Frothy","cena":202.67,"opis":"in hac habitasse platea dictumst aliquam augue quam sollicitudin vitae consectetuer eget rutrum at lorem integer tincidunt ante vel ipsum praesent blandit lacinia erat vestibulum","kolicina":3},
{"id":197,"proizvodjac":"Corporate Asset Backed Corp CABCO","kategorija":"Books","img":"http://dummyimage.com/197x197.jpg/ff4444/ffffff","naziv":"Wine - Magnotta - Bel Paese White","cena":110.05,"opis":"maecenas ut massa quis augue luctus tincidunt nulla mollis molestie lorem quisque ut erat curabitur gravida nisi at nibh in hac habitasse platea","kolicina":32},
{"id":198,"proizvodjac":"Resource Capital Corp.","kategorija":"Automotive","img":"http://dummyimage.com/168x202.jpg/5fa2dd/ffffff","naziv":"Yeast Dry - Fleischman","cena":281.57,"opis":"porttitor id consequat in consequat ut nulla sed accumsan felis ut at dolor quis odio consequat varius integer ac leo pellentesque ultrices mattis odio donec vitae nisi nam ultrices libero non mattis","kolicina":44},
{"id":199,"proizvodjac":"Kayne Anderson Acquisition Corp.","kategorija":"Computers","img":"http://dummyimage.com/214x181.jpg/5fa2dd/ffffff","naziv":"Flour - Buckwheat, Dark","cena":261.97,"opis":"in faucibus orci luctus et ultrices posuere cubilia curae nulla dapibus dolor vel est donec odio justo sollicitudin ut suscipit a","kolicina":7},
{"id":200,"proizvodjac":"Goldman Sachs Group, Inc. (The)","kategorija":"Clothing","img":"http://dummyimage.com/199x165.jpg/ff4444/ffffff","naziv":"Pineapple - Regular","cena":202.2,"opis":"ipsum praesent blandit lacinia erat vestibulum sed magna at nunc commodo placerat praesent blandit nam nulla integer pede justo lacinia eget tincidunt eget tempus vel pede morbi porttitor lorem id ligula suspendisse ornare consequat lectus in est risus","kolicina":33}]